#E   i*(i+i)#
#MT   i*(i+i)#
#MNF   i*(i+i)#
#MNi   i*(i+i)#
#MN   *(i+i)#
#MNF*   *(i+i)#
#MNF   (i+i)#
#MN)E(   (i+i)#
#MN)E   i+i)#
#MN)MT   i+i)#
#MN)MNF   i+i)#
#MN)MNi   i+i)#
#MN)MN   +i)#
#MN)M   +i)#
#MN)MT+   +i)#
#MN)MT   i)#
#MN)MNF   i)#
#MN)MNi   i)#
#MN)MN   )#
#MN)M   )#
#MN)   )#
#MN   #
#M   #
#   #
YES
